/* XPM */
static char * compose-dn_xpm[] = {
"32 30 7 1",
" 	c #B2B2B2B2B2B2 s backgroundToolBarColor",
".	c #666666666666",
"X	c #CCCCCCCCCCCC",
"o	c #FFFFFFFFFFFF",
"O	c #888888888888",
"+	c #AAAAAAAAAAAA",
"@	c #EEEEEEEEEEEE",
"                                ",
"                                ",
"                                ",
"           ........             ",
"           .XXXXXX..            ",
"           .XXXXXX.X.           ",
"       ..................       ",
"       .oooooooooooooooo.O      ",
"       .o..oooooooooo..o.O+     ",
"       .ooooooooooooo..o.O+     ",
"       .oooo......oooooo.O+     ",
"       .oooooooooo@@@@@@.O+     ",
"       .oooo.....o@XXXXX.O+     ",
"       .oooooooooo@XXXXX.O+     ",
"       ..................O+     ",
"        OOO.XXXXXXXX.OOOOO+     ",
"         ++..........O+++++     ",
"            OOOOOOOOOO+         ",
"             ++++++++++         ",
"      ...                       ",
"     .   .                      ",
"     .                          ",
"     .      ..  .. .  . .       ",
"     .     .  . . . . .. .      ",
"     .     .  . . . . .  .      ",
"     .   . .  . . . . .. .      ",
"      ...   ..  . . . . .       ",
"                      .         ",
"                      .         ",
"                                "};
