/* XPM */
static char * delete-up_xpm[] = {
"32 30 8 1",
" 	c #B2B2B2B2B2B2 s backgroundToolBarColor",
".	c #333300009999",
"X	c #FFFFFFFFFFFF",
"o	c #888888888888",
"O	c #AAAAAAAAAAAA",
"+	c #EEEEEEEEEEEE",
"@	c #CCCCCCCCCCCC",
"#	c #000000000000 s foregroundToolBarColor",
"                                ",
"                                ",
"                                ",
"            .....               ",
"       ..   .XXX..     ..oO     ",
"        o.. .+++.X.  ..oooO     ",
"        Ooo..+@@.....ooOOOO     ",
"         OOo...@@...oOO         ",
"           O.oo..oo.oO          ",
"            ...oo...oO          ",
"           ..ooXXoo..O          ",
"         ..o.XX++++.o..         ",
"       ..ooO.++@@@@.ooo..oO     ",
"        oOO ........oOOoooO     ",
"             ooooooooO OOOO     ",
"              OOOOOOO           ",
"                                ",
"                                ",
"                                ",
"                                ",
"   ####       #        #        ",
"   #   #      #        #        ",
"   #   #  ##  #   ##  ###  ##   ",
"   #   # #  # #  #  #  #  #  #  ",
"   #   # #### #  ####  #  ####  ",
"   #   # #    #  #     #  #     ",
"   ####   ###  #  ###   #  ###  ",
"                                ",
"                                ",
"                                "};
