/* XPM */
static char * file-up_xpm[] = {
"32 30 9 1",
" 	c #B2B2B2B2B2B2 s backgroundToolBarColor",
".	c #333300009999",
"X	c #FFFFFFFFFFFF",
"o	c #888888888888",
"O	c #AAAAAAAAAAAA",
"+	c #EEEEEEEEEEEE",
"@	c #CCCCCCCCCCCC",
"#	c #666666666666",
"$	c #000000000000 s foregroundToolBarColor",
"                                ",
"                                ",
"                                ",
"         ..............         ",
"         .  .XXXXXX.  .o        ",
"         .  .XXXXXX.o..oO       ",
"         .  .X+++++.oO.oO       ",
"         .  .X+@@@@.oO.oO       ",
"         .  .X+@@@@.oO.oO       ",
"         .  ........oO.oO       ",
"         .   ooooooooO.oO       ",
"         .    OOOOOOOO.oO       ",
"         .  ........  .oO       ",
"         .  .####.X.  .oO       ",
"         .  .####.X.  .oO       ",
"         O. .####.X.  .oO       ",
"          o............oO       ",
"          OoooooooooooooO       ",
"           OOOOOOOOOOOOOO       ",
"                                ",
"         $$$$$  $               ",
"         $      $               ",
"         $    $ $   $$          ",
"         $$$$   $  $  $         ",
"         $    $ $  $$$$         ",
"         $    $ $  $            ",
"         $    $  $  $$$         ",
"                                ",
"                                ",
"                                "};
