/* XPM */
static char * previous-up_xpm[] = {
"32 30 8 1",
" 	c #B2B2B2B2B2B2 s backgroundToolBarColor",
".	c #333300009999",
"X	c #FFFFFFFFFFFF",
"o	c #EEEEEEEEEEEE",
"O	c #AAAAAAAAAAAA",
"+	c #CCCCCCCCCCCC",
"@	c #888888888888",
"#	c #000000000000 s foregroundToolBarColor",
"                                ",
"                                ",
"                                ",
"            .                   ",
"           ..                   ",
"          .X.                   ",
"         .Xo...... O...O        ",
"        .Xo+ooooo. .@o@.@O      ",
"       .Xo+++++++.O.oo+.@O      ",
"        .o+++++++.@.@+@.@O      ",
"       O@.o+......@O...@OO      ",
"        O@.o.@@@@@@ @@@OOO      ",
"         O@..@                  ",
"          O@.@                  ",
"           O@@                  ",
"            O@                  ",
"             O                  ",
"                                ",
"                                ",
"                                ",
"     ####                       ",
"     #   #                      ",
"     #   #  ##   ##  #   #      ",
"     ####  #  # #  # #   #      ",
"     #     #    #### #   #      ",
"     #     #    #     # #       ",
"     #     #     ###   #        ",
"                                ",
"                                ",
"                                "};
