/* XPM */
static char * print-dn_xpm[] = {
"32 30 7 1",
" 	c #B2B2B2B2B2B2 s backgroundToolBarColor",
".	c #666666666666",
"X	c #FFFFFFFFFFFF",
"o	c #EEEEEEEEEEEE",
"O	c #AAAAAAAAAAAA",
"+	c #CCCCCCCCCCCC",
"@	c #888888888888",
"                                ",
"                                ",
"           .........            ",
"           .XXXXXXX.            ",
"           .X...ooo.            ",
"           .Xoooooo.            ",
"           .X.....o.            ",
"           .Xoooooo.            ",
"           .X.....o.            ",
"           .Xoooooo.            ",
"        ...............         ",
"        .XXXXXXXXXXXXX.O        ",
"        .X  ++++++++++.@O       ",
"        .X++++++++++++.@O       ",
"        .X++++++++++++.@O       ",
"        ...............@O       ",
"         .+@+@+@+@+@+.@@O       ",
"         .............@OO       ",
"          O@@@@@@@@@@@@O        ",
"           OOOOOOOOOOOOO        ",
"                                ",
"     ....               .       ",
"     .   .      .       .       ",
"     .   . . .    . .  ...      ",
"     ....  .. . . .. .  .       ",
"     .     .    . .  .  .       ",
"     .     .    . .  .  .       ",
"     .     .    . .  .   .      ",
"                                ",
"                                "};
