/* XPM */
static char * visit-dn_xpm[] = {
"32 30 7 1",
" 	c #B2B2B2B2B2B2 s backgroundToolBarColor",
".	c #666666666666",
"X	c #FFFFFFFFFFFF",
"o	c #888888888888",
"O	c #AAAAAAAAAAAA",
"+	c #EEEEEEEEEEEE",
"@	c #CCCCCCCCCCCC",
"                                ",
"                                ",
"                                ",
"                 ...            ",
"         ..   ...XX.o ...       ",
"        .XX...XXXXX...oo.o      ",
"       .XXXXXXXX...ooooo.oO     ",
"       .XXX++...ooooooo.ooO     ",
"       .XX++@.ooooo..oo.oOO     ",
"        .X+@@.oo...oooo.oO      ",
"        .+@@.ooooooooo.ooO      ",
"        .+@@.oo...oooo.oOO      ",
"         .@@.ooooooo...oO       ",
"         .@.ooooo...ooooO       ",
"         .@.oo...ooooOOOO       ",
"          ....ooooOOOO          ",
"           oooo OOO             ",
"            OOOO                ",
"                                ",
"                                ",
"       .   .           .        ",
"       .   . .      .  .        ",
"       .   .    ...   ...       ",
"        . .  . .    .  .        ",
"        . .  .  ..  .  .        ",
"        . .  .    . .  .        ",
"         .   . ...  .   .       ",
"                                ",
"                                ",
"                                "};
